{
	"name_ru": "Коробка",
	"name_en": "Box",
	"name_es": "Caja",
	"name_pt": "Caixa",
	"description_ru":"Эта инструкция поможет вам сложить традиционную оригами коробочку.",
	"description_en":"These instructions will show you how to make a traditional origami box also known as a masu box.",
	"description_es":"Estas instrucciones te mostrarán cómo hacer una caja de origami tradicional también conocida como caja masu.",
  "description_pt":"Estas instruções mostrarão como fazer uma caixa de origami tradicional, também conhecida como caixa de masu.",
	"img_prefix": "box",
	"stages":[
				{
					"step": 0,
					"description_ru":"",
					"description_en":"Start with a square sheet of paper with the white side facing up. Fold the paper in half horizontally. Crease it well and then unfold it.",
					"description_es":"Comience con una hoja cuadrada de papel con el lado blanco hacia arriba. Dobla el papel por la mitad horizontalmente. Creelo bien y luego despliegalo.",
          "description_pt":"Comece com uma folha de papel quadrada com o lado branco voltado para cima. Dobre o papel ao meio horizontalmente. Cresce bem e depois desdobre."
				},
				{
					"step": 1,
					"description_ru":"",
					"description_en":"Fold the paper in half vertically. Crease it well and then unfold it.",
					"description_es":"Dobla el papel por la mitad verticalmente. Creelo bien y luego despliegalo.",
          "description_pt":"Dobre o papel ao meio verticalmente. Cresce bem e depois desdobre."
				},
				{
					"step": 2,
					"description_ru":"",
					"description_en":"Fold the corner of the paper to the centre. You’ll do this on each of the 4 corners.",
					"description_es":"Dobla la esquina del papel hacia el centro. Haras esto en cada una de las 4 esquinas.",
          "description_pt":"Dobre o canto do papel para o centro. Voce fara isso em cada um dos quatro cantos."
				},
				{
					"step": 3,
					"description_ru":"",
					"description_en":"Fold the next corner to the centre of the model.",
					"description_es":"Dobla la siguiente esquina hacia el centro del modelo.",
          "description_pt":"Dobre o canto seguinte para o centro do modelo."
				},
				{
					"step": 4,
					"description_ru":"",
					"description_en":"Fold the next corner to the centre of the model.",
					"description_es":"Dobla la siguiente esquina hacia el centro del modelo.",
          "description_pt":"Dobre o canto seguinte para o centro do modelo."
			    },
				{
					"step": 5,
					"description_ru":"",
					"description_en":"Fold the final corner to the centre of the model.",
					"description_es":"Dobla la esquina final al centro del modelo.",
          "description_pt":"Dobre o canto final para o centro do modelo."
				},
				{
					"step": 6,
					"description_ru":"",
					"description_en":"Rotate the model 45 degrees so it’s square again.",
					"description_es":"Gire el modelo 45 grados para que quede cuadrado nuevamente.",
          "description_pt":"Gire o modelo 45 graus para que fique quadrado novamente."
				},
				{
					"step": 7,
					"description_ru":"",
					"description_en":"Fold the top part of the model along the dotted line to the centre.",
					"description_es":"Dobla la parte superior del modelo a lo largo de la linea de puntos hacia el centro.",
          "description_pt":"Dobre a parte superior do modelo ao longo da linha pontilhada para o centro."
				},
				{
					"step": 8,
					"description_ru":"",
					"description_en":"Fold the bottom part of the model along the dotted line to the centre.",
					"description_es":"Dobla la parte inferior del modelo a lo largo de la linea de puntos hacia el centro.",
          "description_pt":"Dobre a parte inferior do modelo ao longo da linha pontilhada para o centro."
				},
				{
					"step": 9,
					"description_ru":"",
					"description_en":"Crease both these folds very well and then unfold them.",
					"description_es":"Crea estos dos pliegues muy bien y luego los despliega.",
          "description_pt":"Misture bem ambas as dobras e depois desdobre-as."
			    },
				{
					"step": 10,
					"description_ru":"",
					"description_en":"These next 2 steps technically aren’t necessary but they make 2 later steps slightly easier. Fold the left part of the model along the dotted line to the centre.",
					"description_es":"Los siguientes 2 pasos tecnicamente no son necesarios pero hacen los 2 pasos posteriores un poco mas faciles. Dobla la parte izquierda del modelo a lo largo de la linea de puntos hacia el centro.",
          "description_pt":"As proximas duas etapas tecnicamente nao sao necessarias, mas tornam as duas etapas posteriores mais faceis. Dobre a parte esquerda do modelo ao longo da linha pontilhada para o centro."
				},
        {
          "step": 11,
          "description_ru":"",
          "description_en":"Fold the right part of the model along the dotted line to the centre.",
          "description_es":"Dobla la parte derecha del modelo a lo largo de la linea de puntos hacia el centro.",
          "description_pt":"Dobre a parte direita do modelo ao longo da linha pontilhada para o centro."
        },
        {
          "step": 12,
          "description_ru":"",
          "description_en":"Crease both these folds very well and then unfold them.",
          "description_es":"Crea estos dos pliegues muy bien y luego los despliega.",
          "description_pt":"Acrescente ambas as dobras muito bem e depois desdobre-as."
        },
        {
          "step": 13,
          "description_ru":"",
          "description_en":"Unfold the top and bottom triangles of paper.",
          "description_es":"Despliega los triangulos superior e inferior del papel.",
          "description_pt":"Desdobre os triangulos superior e inferior do papel."
        },
        {
          "step": 14,
          "description_ru":"",
          "description_en":"Fold the right side of the model to the centre along the dotted line. Part of this crease is already here which will make it a bit easier.",
          "description_es":"Dobla el lado derecho del modelo hacia el centro a lo largo de la linea de puntos. Parte de este pliegue ya esta aqui, lo que lo hara un poco mas facil.",
          "description_pt":"Dobre o lado direito do modelo para o centro ao longo da linha pontilhada. Parte deste vinco ja esta aqui, o que tornara um pouco mais facil."
        },
        {
          "step": 15,
          "description_ru":"",
          "description_en":"Fold the left side of the model to the centre along the dotted line.",
          "description_es":"Dobla el lado izquierdo del modelo hacia el centro a lo largo de la linea de puntos.",
          "description_pt":"Dobre o lado esquerdo do modelo para o centro ao longo da linha pontilhada."
        },
        {
          "step": 16,
          "description_ru":"",
          "description_en":"Slowly pull the model open at the top following the dotted lines. The creases here are already made.",
          "description_es":"Tire lentamente del modelo para abrirlo en la parte superior siguiendo las lineas de puntos. Las arrugas aqui ya estan hechas.",
          "description_pt":"Puxe lentamente o modelo aberto na parte superior seguindo as linhas pontilhadas. Os vincos aqui ja estao feitos."
        },
        {
          "step": 17,
          "description_ru":"",
          "description_en":"When you pull the model open it should take a shape that looks like this. The creases are all already made so everything should fall into place.",
          "description_es":"Cuando tire del modelo para abrirlo, debe tomar una forma como esta. Los pliegues ya estan hechos, por lo que todo debe encajar en su lugar.",
          "description_pt":"Quando voce puxar o modelo aberto, ele deve ter uma forma que se parece com isso. Os vincos ja foram feitos, entao tudo deve se encaixar."
        },
        {
          "step": 18,
          "description_ru":"",
          "description_en":"Fold the flap of paper down along the dotted line that intersects the two triangles. This will form the edge of the box. Fold the top triangle of paper up a little bit to fit into place at the bottom of the box.",
          "description_es":"Dobla la solapa de papel hacia abajo a lo largo de la linea de puntos que cruza los dos triangulos. Esto formara el borde de la caja. Dobla un poco el triangulo superior del papel para que encaje en su lugar en la parte inferior de la caja.",
          "description_pt":"Dobre a aba de papel para baixo ao longo da linha pontilhada que intercepta os dois triangulos. Isso formara a borda da caixa. Dobre um pouco o triangulo superior do papel para se encaixar na parte inferior da caixa."
        },
        {
          "step": 19,
          "description_ru":"",
          "description_en":"Fold the other side of the box now along the existing creases like you did in steps 17 and 18. The paper should fall into place and give you a shape just like in step 18.",
          "description_es":"Dobla el otro lado de la caja ahora a lo largo de los pliegues existentes como hiciste en los pasos 17 y 18. El papel debe encajar en su lugar y darte una forma como en el paso 18.",
          "description_pt":"Dobre o outro lado da caixa agora ao longo dos vincos existentes, como voce fez nos passos 17 e 18. O papel deve se encaixar e dar-lhe uma forma como no passo 18."
        },
        {
          "step": 20,
          "description_ru":"",
          "description_en":"Fold the top flap of paper down along the dotted line to form the edge of the box. Fold the top triangle of paper up a little bit to also fit into the bottom of the box, just like in step 19.",
          "description_es":"Dobla la solapa superior del papel hacia abajo a lo largo de la linea de puntos para formar el borde de la caja. Dobla un poco el triangulo superior del papel para que quepa tambien en la parte inferior de la caja, como en el paso 19.",
          "description_pt":"Dobre a aba superior do papel para baixo ao longo da linha pontilhada para formar a borda da caixa. Dobre o triangulo superior de papel um pouco para caber na parte inferior da caixa, como no passo 19."
        },
        {
          "step": 21,
          "description_ru":"",
          "description_en":"The competed traditional origami box or masu box.",
          "description_es":"La caja de origami tradicional competida o la caja de masu.",
          "description_pt":"A caixa de origami tradicional competida ou caixa de masu."
        }
			]
}
